wave.vcd
$date
	Mon Jul 10 22:14:15 2023
$end
$version
	Icarus Verilog
$end
$timescale
	1s
$end
$scope module sccomp_tb $end
$scope module xgriscv $end
$scope module U_SCPU $end
$var wire 32 ! Addr_out [31:0] $end
$var wire 1 " CPU_MIO $end
$var wire 32 # Data_out [31:0] $end
$var wire 1 $ INT $end
$var wire 1 % MIO_ready $end
$var wire 32 & PC_out [31:0] $end
$var wire 1 ' clk $end
$var wire 3 ( dm_ctrl [2:0] $end
$var wire 1 ) ex_hz1 $end
$var wire 1 * ex_hz2 $end
$var wire 1 + ex_nld_hz1 $end
$var wire 1 , ex_nld_hz2 $end
$var wire 1 - flush $end
$var wire 1 . mem_hz1 $end
$var wire 1 / mem_hz2 $end
$var wire 1 0 mem_w $end
$var wire 32 1 rb_data_in [31:0] $end
$var wire 1 2 reset $end
$var wire 1 3 stall $end
$var wire 20 4 uimm [19:0] $end
$var wire 12 5 simm [11:0] $end
$var wire 32 6 rs2_imm_tmp [31:0] $end
$var wire 32 7 rs2_data_id_ex_out [31:0] $end
$var wire 32 8 rs2_data_ex_mem_out [31:0] $end
$var wire 5 9 rs2 [4:0] $end
$var wire 32 : rs1_data_id_ex_out [31:0] $end
$var wire 5 ; rs1 [4:0] $end
$var wire 32 < rdata_mem_wb_out [31:0] $end
$var wire 5 = rd_mem_wb_out [4:0] $end
$var wire 5 > rd_id_ex_out [4:0] $end
$var wire 5 ? rd_ex_mem_out [4:0] $end
$var wire 5 @ rd [4:0] $end
$var wire 32 A rb_data_pc [31:0] $end
$var wire 32 B rb_data [31:0] $end
$var wire 32 C pc_mem_wb_out [31:0] $end
$var wire 32 D pc_if_id_out [31:0] $end
$var wire 32 E pc_id_ex_out [31:0] $end
$var wire 32 F pc_ex_mem_out [31:0] $end
$var wire 32 G old_RD2 [31:0] $end
$var wire 32 H old_RD1 [31:0] $end
$var wire 32 I new_mem_data2 [31:0] $end
$var wire 32 J new_mem_data1 [31:0] $end
$var wire 20 K jimm [19:0] $end
$var wire 32 L instr_if_id_out [31:0] $end
$var wire 32 M instr_id_ex_out [31:0] $end
$var wire 32 N inst_in [31:0] $end
$var wire 32 O immout [31:0] $end
$var wire 32 P imm_mem_wb_out [31:0] $end
$var wire 32 Q imm_id_ex_out [31:0] $end
$var wire 32 R imm_ex_mem_out [31:0] $end
$var wire 5 S iimm_shamt [4:0] $end
$var wire 12 T iimm [11:0] $end
$var wire 12 U bimm [11:0] $end
$var wire 32 V alu_out [31:0] $end
$var wire 32 W alu_mem_wb_out [31:0] $end
$var wire 32 X alu_ex_mem_out [31:0] $end
$var wire 32 Y addsum_ex_mem_out [31:0] $end
$var wire 1 Z Zero $end
$var wire 2 [ WDSel_mem_wb_out [1:0] $end
$var wire 2 \ WDSel_id_ex_out [1:0] $end
$var wire 2 ] WDSel_ex_mem_out [1:0] $end
$var wire 2 ^ WDSel [1:0] $end
$var wire 1 _ RegWrite_mem_wb_out $end
$var wire 1 ` RegWrite_id_ex_out $end
$var wire 1 a RegWrite_ex_mem_out $end
$var wire 1 b RegWrite $end
$var wire 32 c RD2 [31:0] $end
$var wire 32 d RD1 [31:0] $end
$var wire 32 e PC [31:0] $end
$var wire 7 f Op [6:0] $end
$var wire 3 g NPCOp_id_ex_out [2:0] $end
$var wire 3 h NPCOp_ex_mem_out [2:0] $end
$var wire 3 i NPCOp [2:0] $end
$var wire 32 j NPC [31:0] $end
$var wire 1 k MemWrite_id_ex_out $end
$var wire 1 l MemWrite_ex_mem_out $end
$var wire 1 m MemWrite $end
$var wire 1 n MemRead_id_ex_out $end
$var wire 1 o MemRead $end
$var wire 7 p Funct7 [6:0] $end
$var wire 3 q Funct3 [2:0] $end
$var wire 6 r EXTOp_id_ex_out [5:0] $end
$var wire 6 s EXTOp [5:0] $end
$var wire 32 t Data_in [31:0] $end
$var wire 3 u DMType_mem_wb_out [2:0] $end
$var wire 3 v DMType_id_ex_out [2:0] $end
$var wire 3 w DMType_ex_mem_out [2:0] $end
$var wire 3 x DMType [2:0] $end
$var wire 1 y ALUSrc_id_ex_out $end
$var wire 1 z ALUSrc $end
$var wire 5 { ALUOp_id_ex_out [4:0] $end
$var wire 5 | ALUOp [4:0] $end
$var reg 32 } Data_in_new [31:0] $end
$var reg 3 ~ NPCOp_a [2:0] $end
$var reg 32 !" rs1_data_tmp [31:0] $end
$var reg 32 "" rs2_data_tmp [31:0] $end
$scope module U_ALU $end
$var wire 32 #" A [31:0] $end
$var wire 32 $" B [31:0] $end
$var wire 32 %" pc_alu_in [31:0] $end
$var wire 1 Z Zero $end
$var wire 5 &" ALUOp [4:0] $end
$var reg 32 '" C [31:0] $end
$upscope $end
$scope module U_EXT $end
$var wire 12 (" bimm [11:0] $end
$var wire 12 )" iimm [11:0] $end
$var wire 5 *" iimm_shamt [4:0] $end
$var wire 20 +" jimm [19:0] $end
$var wire 12 ," simm [11:0] $end
$var wire 20 -" uimm [19:0] $end
$var wire 6 ." EXTOp [5:0] $end
$var reg 32 /" immout [31:0] $end
$upscope $end
$scope module U_EX_MEM $end
$var wire 1 0" MemRead_ex_mem_in $end
$var wire 32 1" alu_ex_mem_in [31:0] $end
$var wire 1 ' clk $end
$var wire 1 - flush $end
$var wire 1 2 rst $end
$var wire 1 Z zero_ex_mem_in $end
$var wire 32 2" rs2_data_ex_mem_in [31:0] $end
$var wire 5 3" rd_ex_mem_in [4:0] $end
$var wire 32 4" pc_ex_mem_in [31:0] $end
$var wire 32 5" imm_ex_mem_in [31:0] $end
$var wire 32 6" addsum_ex_mem_in [31:0] $end
$var wire 2 7" WDSel_ex_mem_in [1:0] $end
$var wire 1 ` RegWrite_ex_mem_in $end
$var wire 3 8" NPCOp_ex_mem_in [2:0] $end
$var wire 1 k MemWrite_ex_mem_in $end
$var wire 3 9" DMType_ex_mem_in [2:0] $end
$var reg 3 :" DMType_ex_mem_out [2:0] $end
$var reg 1 ;" MemRead_ex_mem_out $end
$var reg 1 l MemWrite_ex_mem_out $end
$var reg 3 <" NPCOp_ex_mem_out [2:0] $end
$var reg 1 a RegWrite_ex_mem_out $end
$var reg 2 =" WDSel_ex_mem_out [1:0] $end
$var reg 32 >" addsum_ex_mem_out [31:0] $end
$var reg 32 ?" alu_ex_mem_out [31:0] $end
$var reg 32 @" imm_ex_mem_out [31:0] $end
$var reg 32 A" pc_ex_mem_out [31:0] $end
$var reg 5 B" rd_ex_mem_out [4:0] $end
$var reg 32 C" rs2_data_ex_mem_out [31:0] $end
$upscope $end
$scope module U_ID_EX $end
$var wire 1 ' clk $end
$var wire 1 - flush $end
$var wire 32 D" imm_id_ex_in [31:0] $end
$var wire 5 E" rd_id_ex_in [4:0] $end
$var wire 32 F" rs1_data_id_ex_in [31:0] $end
$var wire 32 G" rs2_data_id_ex_in [31:0] $end
$var wire 1 2 rst $end
$var wire 1 3 stall $end
$var wire 32 H" pc_id_ex_in [31:0] $end
$var wire 32 I" instr_id_ex_in [31:0] $end
$var wire 2 J" WDSel_id_ex_in [1:0] $end
$var wire 1 b RegWrite_id_ex_in $end
$var wire 3 K" NPCOp_id_ex_in [2:0] $end
$var wire 1 m MemWrite_id_ex_in $end
$var wire 1 o MemRead_id_ex_in $end
$var wire 6 L" EXTOp_id_ex_in [5:0] $end
$var wire 3 M" DMType_id_ex_in [2:0] $end
$var wire 1 z ALUSrc_id_ex_in $end
$var wire 5 N" ALUOp_id_ex_in [4:0] $end
$var reg 5 O" ALUOp_id_ex_out [4:0] $end
$var reg 1 y ALUSrc_id_ex_out $end
$var reg 3 P" DMType_id_ex_out [2:0] $end
$var reg 6 Q" EXTOp_id_ex_out [5:0] $end
$var reg 1 n MemRead_id_ex_out $end
$var reg 1 k MemWrite_id_ex_out $end
$var reg 3 R" NPCOp_id_ex_out [2:0] $end
$var reg 1 ` RegWrite_id_ex_out $end
$var reg 2 S" WDSel_id_ex_out [1:0] $end
$var reg 32 T" imm_id_ex_out [31:0] $end
$var reg 32 U" instr_id_ex_out [31:0] $end
$var reg 32 V" pc_id_ex_out [31:0] $end
$var reg 5 W" rd_id_ex_out [4:0] $end
$var reg 32 X" rs1_data_id_ex_out [31:0] $end
$var reg 32 Y" rs2_data_id_ex_out [31:0] $end
$upscope $end
$scope module U_IF_ID $end
$var wire 1 ' clk $end
$var wire 1 - flush $end
$var wire 1 2 rst $end
$var wire 1 3 stall $end
$var wire 32 Z" pc_if_id_in [31:0] $end
$var wire 32 [" instr_if_id_in [31:0] $end
$var reg 32 \" instr_if_id_out [31:0] $end
$var reg 32 ]" pc_if_id_out [31:0] $end
$upscope $end
$scope module U_MEM_WB $end
$var wire 3 ^" DMType_mem_wb_in [2:0] $end
$var wire 1 a RegWrite_mem_wb_in $end
$var wire 2 _" WDSel_mem_wb_in [1:0] $end
$var wire 32 `" alu_mem_wb_in [31:0] $end
$var wire 1 ' clk $end
$var wire 32 a" imm_mem_wb_in [31:0] $end
$var wire 32 b" pc_mem_wb_in [31:0] $end
$var wire 5 c" rd_mem_wb_in [4:0] $end
$var wire 32 d" rdata_mem_wb_in [31:0] $end
$var wire 1 2 rst $end
$var reg 3 e" DMType_mem_wb_out [2:0] $end
$var reg 1 _ RegWrite_mem_wb_out $end
$var reg 2 f" WDSel_mem_wb_out [1:0] $end
$var reg 32 g" alu_mem_wb_out [31:0] $end
$var reg 32 h" imm_mem_wb_out [31:0] $end
$var reg 32 i" pc_mem_wb_out [31:0] $end
$var reg 5 j" rd_mem_wb_out [4:0] $end
$var reg 32 k" rdata_mem_wb_out [31:0] $end
$upscope $end
$scope module U_NPC $end
$var wire 32 l" ALU_out [31:0] $end
$var wire 32 m" IMM [31:0] $end
$var wire 3 n" NPCOp [2:0] $end
$var wire 32 o" PC [31:0] $end
$var wire 32 p" PC_plus4 [31:0] $end
$var reg 32 q" NPC [31:0] $end
$upscope $end
$scope module U_PC $end
$var wire 32 r" NPC [31:0] $end
$var wire 3 s" NPCOp [2:0] $end
$var wire 1 ' clk $end
$var wire 1 2 rst $end
$var wire 1 3 stall $end
$var wire 32 t" PC_PLUS4 [31:0] $end
$var reg 32 u" PC [31:0] $end
$upscope $end
$scope module U_RF $end
$var wire 5 v" A1 [4:0] $end
$var wire 5 w" A2 [4:0] $end
$var wire 5 x" A3 [4:0] $end
$var wire 1 _ RFWr $end
$var wire 32 y" WD [31:0] $end
$var wire 1 ' clk $end
$var wire 32 z" pc [31:0] $end
$var wire 1 2 rst $end
$var wire 32 {" RD2 [31:0] $end
$var wire 32 |" RD1 [31:0] $end
$var integer 32 }" i [31:0] $end
$upscope $end
$scope module U_ctrl $end
$var wire 1 z ALUSrc $end
$var wire 3 ~" Funct3 [2:0] $end
$var wire 7 !# Funct7 [6:0] $end
$var wire 1 o MemRead $end
$var wire 1 m MemWrite $end
$var wire 7 "# Op [6:0] $end
$var wire 1 b RegWrite $end
$var wire 1 Z Zero $end
$var wire 1 ## i_add $end
$var wire 1 $# i_addi $end
$var wire 1 %# i_and $end
$var wire 1 &# i_andi $end
$var wire 1 '# i_auipc $end
$var wire 1 (# i_beq $end
$var wire 1 )# i_bge $end
$var wire 1 *# i_bgeu $end
$var wire 1 +# i_blt $end
$var wire 1 ,# i_bltu $end
$var wire 1 -# i_bne $end
$var wire 1 .# i_jal $end
$var wire 1 /# i_jalr $end
$var wire 1 0# i_lb $end
$var wire 1 1# i_lbu $end
$var wire 1 2# i_lh $end
$var wire 1 3# i_lhu $end
$var wire 1 4# i_lui $end
$var wire 1 5# i_lw $end
$var wire 1 6# i_or $end
$var wire 1 7# i_ori $end
$var wire 1 8# i_sb $end
$var wire 1 9# i_sh $end
$var wire 1 :# i_sll $end
$var wire 1 ;# i_slli $end
$var wire 1 <# i_slt $end
$var wire 1 =# i_slti $end
$var wire 1 ># i_sltiu $end
$var wire 1 ?# i_sltu $end
$var wire 1 @# i_sra $end
$var wire 1 A# i_srai $end
$var wire 1 B# i_srl $end
$var wire 1 C# i_srli $end
$var wire 1 D# i_sub $end
$var wire 1 E# i_sw $end
$var wire 1 F# i_xor $end
$var wire 1 G# i_xori $end
$var wire 1 H# itype_l $end
$var wire 1 I# itype_r $end
$var wire 1 J# rtype $end
$var wire 1 K# sbtype $end
$var wire 1 L# stype $end
$var wire 2 M# WDSel [1:0] $end
$var wire 3 N# NPCOp [2:0] $end
$var wire 6 O# EXTOp [5:0] $end
$var wire 3 P# DMType [2:0] $end
$var wire 5 Q# ALUOp [4:0] $end
$upscope $end
$upscope $end
$upscope $end
$upscope $end
$enddefinitions $end
$comment Show the parameter values. $end
$dumpall
$end
#0
$dumpvars
b0 Q#
b0 P#
b0 O#
b0 N#
b0 M#
0L#
0K#
0J#
0I#
0H#
0G#
0F#
0E#
0D#
0C#
0B#
0A#
0@#
0?#
0>#
0=#
0<#
0;#
0:#
09#
08#
07#
06#
05#
04#
03#
02#
01#
00#
0/#
0.#
0-#
0,#
0+#
0*#
0)#
0(#
0'#
0&#
0%#
0$#
0##
b0 "#
b0 !#
b0 ~"
b100000 }"
b0 |"
b0 {"
b0 z"
b0 y"
b0 x"
b0 w"
b0 v"
b0 u"
b100 t"
b0 s"
b100 r"
b100 q"
b100 p"
b0 o"
b0 n"
b0 m"
b0 l"
b0 k"
b0 j"
b0 i"
b0 h"
b0 g"
b0 f"
b0 e"
bx d"
b0 c"
b0 b"
b0 a"
b0 `"
b0 _"
b0 ^"
b0 ]"
b0 \"
b100011010000000110001010010011 ["
b0 Z"
b0 Y"
b0 X"
b0 W"
b0 V"
b0 U"
b0 T"
b0 S"
b0 R"
b0 Q"
b0 P"
b0 O"
b0 N"
b0 M"
b0 L"
b0 K"
b0 J"
b0 I"
b0 H"
b0 G"
b0 F"
b0 E"
b0 D"
b0 C"
b0 B"
b0 A"
b0 @"
b0 ?"
b0 >"
b0 ="
b0 <"
0;"
b0 :"
b0 9"
b0 8"
b0 7"
b100 6"
b0 5"
b0 4"
b0 3"
b0 2"
b0 1"
z0"
b0 /"
b0 ."
b0 -"
b0 ,"
b0 +"
b0 *"
b0 )"
b0 ("
b0 '"
b0 &"
b0 %"
b0 $"
b0 #"
b0 ""
b0 !"
b0 ~
bx }
b0 |
b0 {
0z
0y
b0 x
b0 w
b0 v
b0 u
bx t
b0 s
b0 r
b0 q
b0 p
0o
0n
0m
0l
0k
b100 j
b0 i
b0 h
b0 g
b0 f
b0 e
b0 d
b0 c
0b
0a
0`
0_
b0 ^
b0 ]
b0 \
b0 [
1Z
b0 Y
b0 X
b0 W
b0 V
b0 U
b0 T
b0 S
b0 R
b0 Q
b0 P
b0 O
b100011010000000110001010010011 N
b0 M
b0 L
b0 K
b0 J
b0 I
b0 H
b0 G
b0 F
b0 E
b0 D
b0 C
b0 B
b0 A
b0 @
b0 ?
b0 >
b0 =
b0 <
b0 ;
b0 :
b0 9
b0 8
b0 7
b0 6
b0 5
b0 4
03
12
b0 1
00
0/
0.
0-
0,
0+
0*
0)
b0 (
1'
b0 &
z%
z$
b0 #
z"
b0 !
$end
#5
02
#50
0'
#100
b1000110100 O
b1000110100 /"
b1000110100 D"
b1101 |
b1101 N"
b1101 Q#
17#
1I#
1b
1z
b10000 s
b10000 ."
b10000 L"
b10000 O#
0o
b0 ^
b0 J"
b0 M#
0H#
b101 @
b101 E"
b10100 9
b10100 w"
b110 q
b110 ~"
b10001 p
b10001 !#
b10011 f
b10011 "#
b11000100011010 K
b11000100011010 +"
b100011010000000110 4
b100011010000000110 -"
b10100010010 U
b10100010010 ("
b1000100101 5
b1000100101 ,"
b1000110100 T
b1000110100 )"
b10100 S
b10100 *"
b1001100110111 N
b1001100110111 ["
bx 1
bx <
bx k"
z;"
b100 Y
b100 >"
b100011010000000110001010010011 L
b100011010000000110001010010011 I"
b100011010000000110001010010011 \"
b1000 t"
b100 &
b100 e
b100 Z"
b100 u"
b100 z"
1'
#150
0'
#200
b1000000000000 O
b1000000000000 /"
b1000000000000 D"
14#
b1 |
b1 N"
b1 Q#
0;#
0I#
b10 s
b10 ."
b10 L"
b10 O#
0'#
07#
0&#
0Z
b1000110100 V
b1000110100 '"
b1000110100 1"
b1000110100 l"
b11000101110001010110011 N
b11000101110001010110011 ["
b110 @
b110 E"
b0 9
b0 w"
b1 q
b1 ~"
b0 p
b0 !#
b110111 f
b110111 "#
b100000000000 K
b100000000000 +"
b1 4
b1 -"
b11 U
b11 ("
b110 5
b110 ,"
b0 T
b0 )"
b0 S
b0 *"
b1000110100 6
b1000110100 $"
b1100 t"
b1000 &
b1000 e
b1000 Z"
b1000 u"
b1000 z"
b1001100110111 L
b1001100110111 I"
b1001100110111 \"
b100 D
b100 H"
b100 ]"
1y
b1101 {
b1101 &"
b1101 O"
b10000 r
b10000 Q"
1`
b101 >
b101 3"
b101 W"
b1000110100 Q
b1000110100 5"
b1000110100 T"
b1000110100 m"
b100011010000000110001010010011 M
b100011010000000110001010010011 U"
1'
#250
0'
#300
b0 O
b0 /"
b0 D"
b1000 j
b1000 6"
b1000 q"
b1000 r"
16#
b1101 |
b1101 N"
b1101 Q#
1b
0z
1J#
b0 s
b0 ."
b0 L"
b0 O#
04#
1,
1.
b1000000000000 V
b1000000000000 '"
b1000000000000 1"
b1000000000000 l"
1*
b1000110100 I
b1000110100 J
b1000000000000 6
b1000000000000 $"
b101 @
b101 E"
b110 9
b110 w"
b101 ;
b101 v"
b110 q
b110 ~"
b110011 f
b110011 "#
b10111000000000011 K
b10111000000000011 +"
b11000101110 4
b11000101110 -"
b10000000010 U
b10000000010 ("
b101 5
b101 ,"
b110 T
b110 )"
b110 S
b110 *"
b10011000011101100101001100110111 N
b10011000011101100101001100110111 ["
1a
b1000110100 R
b1000110100 @"
b1000110100 a"
b1000110100 !
b1000110100 X
b1000110100 ?"
b1000110100 `"
b101 ?
b101 B"
b101 c"
b1 {
b1 &"
b1 O"
b10 r
b10 Q"
b110 >
b110 3"
b110 W"
b1000000000000 Q
b1000000000000 5"
b1000000000000 T"
b1000000000000 m"
b1001100110111 M
b1001100110111 U"
b1000 p"
b100 E
b100 %"
b100 4"
b100 V"
b100 o"
b11000101110001010110011 L
b11000101110001010110011 I"
b11000101110001010110011 \"
b1000 D
b1000 H"
b1000 ]"
b10000 t"
b1100 &
b1100 e
b1100 Z"
b1100 u"
b1100 z"
1'
#350
0'
#400
b10011000011101100101000000000000 O
b10011000011101100101000000000000 /"
b10011000011101100101000000000000 D"
b1100 j
b1100 6"
b1100 q"
b1100 r"
b1 |
b1 N"
b1 Q#
1z
0J#
b10 s
b10 ."
b10 L"
b10 O#
0B#
14#
06#
0%#
0,
0+
0/
0.
b1000110100 B
b1000110100 y"
b110100010100101000001110010011 N
b110100010100101000001110010011 ["
b110 @
b110 E"
b111 9
b111 w"
b1100 ;
b1100 v"
b101 q
b101 ~"
b1001100 p
b1001100 !#
b110111 f
b110111 "#
b10110010110011000011 K
b10110010110011000011 +"
b10011000011101100101 4
b10011000011101100101 -"
b100011000011 U
b100011000011 ("
b100110000110 5
b100110000110 ,"
b100110000111 T
b100110000111 )"
b111 S
b111 *"
0*
0)
b1000000000000 I
b1000000000000 J
b1000110100 A
b1001000110100 V
b1001000110100 '"
b1001000110100 1"
b1001000110100 l"
b10100 t"
b10000 &
b10000 e
b10000 Z"
b10000 u"
b10000 z"
b10011000011101100101001100110111 L
b10011000011101100101001100110111 I"
b10011000011101100101001100110111 \"
b1100 D
b1100 H"
b1100 ]"
0y
b1101 {
b1101 &"
b1101 O"
b0 r
b0 Q"
b101 >
b101 3"
b101 W"
b0 Q
b0 5"
b0 T"
b0 m"
b11000101110001010110011 M
b11000101110001010110011 U"
b1100 p"
b1000 E
b1000 %"
b1000 4"
b1000 V"
b1000 o"
b1000000000000 R
b1000000000000 @"
b1000000000000 a"
b1000 Y
b1000 >"
b1000000000000 !
b1000000000000 X
b1000000000000 ?"
b1000000000000 `"
b110 ?
b110 B"
b110 c"
b100 F
b100 A"
b100 b"
1_
b101 =
b101 j"
b101 x"
b1000110100 P
b1000110100 h"
b1000110100 W
b1000110100 g"
b1000000000000 ""
b1000000000000 G"
b1000110100 !"
b1000110100 #"
b1000110100 F"
1'
#450
0'
#500
b1101000101 O
b1101000101 /"
b1101000101 D"
b10000 j
b10000 6"
b10000 q"
b10000 r"
1$#
1I#
b11 |
b11 N"
b11 Q#
1b
1z
0J#
b10000 s
b10000 ."
b10000 L"
b10000 O#
04#
1/
b1000110100 c
1.
b1000110100 d
b1000000000000 B
b1000000000000 y"
b1000110100 G
b1000110100 {"
b1000110100 H
b1000110100 |"
b1000000000000 A
b1001000110100 I
b1001000110100 J
b10011000011101100101000000000000 6
b10011000011101100101000000000000 $"
b10011000011101100101000000000000 V
b10011000011101100101000000000000 '"
b10011000011101100101000000000000 1"
b10011000011101100101000000000000 l"
b111 @
b111 E"
b101 9
b101 w"
b101 ;
b101 v"
b0 q
b0 ~"
b11010 p
b11010 !#
b10011 f
b10011 "#
b10100010110100010 K
b10100010110100010 +"
b110100010100101000 4
b110100010100101000 -"
b10110100011 U
b10110100011 ("
b1101000111 5
b1101000111 ,"
b1101000101 T
b1101000101 )"
b101 S
b101 *"
b11000000000000110000010000010011 N
b11000000000000110000010000010011 ["
b0 ""
b0 G"
b0 !"
b0 #"
b0 F"
b110 =
b110 j"
b110 x"
b1000000000000 P
b1000000000000 h"
b1000000000000 W
b1000000000000 g"
b100 C
b100 i"
b0 R
b0 @"
b0 a"
b1100 Y
b1100 >"
b1001000110100 !
b1001000110100 X
b1001000110100 ?"
b1001000110100 `"
b101 ?
b101 B"
b101 c"
b1000 F
b1000 A"
b1000 b"
1y
b1 {
b1 &"
b1 O"
b10 r
b10 Q"
b1000000000000 #
b1000000000000 7
b1000000000000 2"
b1000000000000 Y"
b1000110100 :
b1000110100 X"
b110 >
b110 3"
b110 W"
b10011000011101100101000000000000 Q
b10011000011101100101000000000000 5"
b10011000011101100101000000000000 T"
b10011000011101100101000000000000 m"
b10011000011101100101001100110111 M
b10011000011101100101001100110111 U"
b10000 p"
b1100 E
b1100 %"
b1100 4"
b1100 V"
b1100 o"
b110100010100101000001110010011 L
b110100010100101000001110010011 I"
b110100010100101000001110010011 \"
b10000 D
b10000 H"
b10000 ]"
b11000 t"
b10100 &
b10100 e
b10100 Z"
b10100 u"
b10100 z"
1'
#550
0'
#600
b11111111111111111111110000000000 O
b11111111111111111111110000000000 /"
b11111111111111111111110000000000 D"
b10100 j
b10100 6"
b10100 q"
b10100 r"
b0 G
b0 {"
b1000000000000 H
b1000000000000 |"
0/
1.
b1001000110100 B
b1001000110100 y"
b1111011110000101100010010010011 N
b1111011110000101100010010010011 ["
b1000 @
b1000 E"
b0 9
b0 w"
b110 ;
b110 v"
b1100000 p
b1100000 !#
b10011000001000000000 K
b10011000001000000000 +"
b11000000000000110000 4
b11000000000000110000 -"
b101000000100 U
b101000000100 ("
b110000001000 5
b110000001000 ,"
b110000000000 T
b110000000000 )"
b0 S
b0 *"
b1101000101 6
b1101000101 $"
b10011000011101100101000000000000 I
b10011000011101100101000000000000 J
b0 c
b1000000000000 d
b1001000110100 A
b1010101111001 V
b1010101111001 '"
b1010101111001 1"
b1010101111001 l"
b11100 t"
b11000 &
b11000 e
b11000 Z"
b11000 u"
b11000 z"
b11000000000000110000010000010011 L
b11000000000000110000010000010011 I"
b11000000000000110000010000010011 \"
b10100 D
b10100 H"
b10100 ]"
b11 {
b11 &"
b11 O"
b10000 r
b10000 Q"
b0 #
b0 7
b0 2"
b0 Y"
b0 :
b0 X"
b111 >
b111 3"
b111 W"
b1101000101 Q
b1101000101 5"
b1101000101 T"
b1101000101 m"
b110100010100101000001110010011 M
b110100010100101000001110010011 U"
b10100 p"
b10000 E
b10000 %"
b10000 4"
b10000 V"
b10000 o"
b1000000000000 8
b1000000000000 C"
b10011000011101100101000000000000 R
b10011000011101100101000000000000 @"
b10011000011101100101000000000000 a"
b10000 Y
b10000 >"
b10011000011101100101000000000000 !
b10011000011101100101000000000000 X
b10011000011101100101000000000000 ?"
b10011000011101100101000000000000 `"
b110 ?
b110 B"
b110 c"
b1100 F
b1100 A"
b1100 b"
b101 =
b101 j"
b101 x"
b0 P
b0 h"
b1001000110100 W
b1001000110100 g"
b1000 C
b1000 i"
b1001000110100 ""
b1001000110100 G"
b1001000110100 !"
b1001000110100 #"
b1001000110100 F"
1'
#650
0'
#700
b11110111100 O
b11110111100 /"
b11110111100 D"
b11000 j
b11000 6"
b11000 q"
b11000 r"
b1100 |
b1100 N"
b1100 Q#
0$#
1G#
b1001000110100 d
b10011000011101100101000000000000 B
b10011000011101100101000000000000 y"
0.
b1001000110100 H
b1001000110100 |"
b10011000011101100101000000000000 A
b1010101111001 I
b1010101111001 J
b11111111111111111111110000000000 6
b11111111111111111111110000000000 $"
b10011000011101100100110000000000 V
b10011000011101100100110000000000 '"
b10011000011101100100110000000000 1"
b10011000011101100100110000000000 l"
b1001 @
b1001 E"
b11100 9
b11100 w"
b101 ;
b101 v"
b100 q
b100 ~"
b111101 p
b111101 !#
b10110001111011110 K
b10110001111011110 +"
b1111011110000101100 4
b1111011110000101100 -"
b11111010100 U
b11111010100 ("
b11110101001 5
b11110101001 ,"
b11110111100 T
b11110111100 )"
b11100 S
b11100 *"
b11010000111011000110010011 N
b11010000111011000110010011 ["
b0 ""
b0 G"
b10011000011101100101000000000000 !"
b10011000011101100101000000000000 #"
b10011000011101100101000000000000 F"
b110 =
b110 j"
b110 x"
b10011000011101100101000000000000 P
b10011000011101100101000000000000 h"
b10011000011101100101000000000000 W
b10011000011101100101000000000000 g"
b1100 C
b1100 i"
b0 8
b0 C"
b1101000101 R
b1101000101 @"
b1101000101 a"
b10100 Y
b10100 >"
b1010101111001 !
b1010101111001 X
b1010101111001 ?"
b1010101111001 `"
b111 ?
b111 B"
b111 c"
b10000 F
b10000 A"
b10000 b"
b1001000110100 #
b1001000110100 7
b1001000110100 2"
b1001000110100 Y"
b1001000110100 :
b1001000110100 X"
b1000 >
b1000 3"
b1000 W"
b11111111111111111111110000000000 Q
b11111111111111111111110000000000 5"
b11111111111111111111110000000000 T"
b11111111111111111111110000000000 m"
b11000000000000110000010000010011 M
b11000000000000110000010000010011 U"
b11000 p"
b10100 E
b10100 %"
b10100 4"
b10100 V"
b10100 o"
b1111011110000101100010010010011 L
b1111011110000101100010010010011 I"
b1111011110000101100010010010011 \"
b11000 D
b11000 H"
b11000 ]"
b100000 t"
b11100 &
b11100 e
b11100 Z"
b11100 u"
b11100 z"
1'
#750
0'
#800
b110100 O
b110100 /"
b110100 D"
b11100 j
b11100 6"
b11100 q"
b11100 r"
1>#
b10000 s
b10000 ."
b10000 L"
b10000 O#
b1011 |
b1011 N"
b1011 Q#
0&#
0G#
0C#
b0 H
b0 |"
b1010101111001 d
b1010101111001 B
b1010101111001 y"
b11111111111100101011001000010011 N
b11111111111100101011001000010011 ["
b11 @
b11 E"
b10100 9
b10100 w"
b111 ;
b111 v"
b11 q
b11 ~"
b1 p
b1 !#
b11101100000011010 K
b11101100000011010 +"
b11010000111011 4
b11010000111011 -"
b10000010001 U
b10000010001 ("
b100011 5
b100011 ,"
b110100 T
b110100 )"
b10100 S
b10100 *"
b11110111100 6
b11110111100 $"
b10011000011101100100110000000000 I
b10011000011101100100110000000000 J
b1010101111001 A
b1010110001000 V
b1010110001000 '"
b1010110001000 1"
b1010110001000 l"
b100100 t"
b100000 &
b100000 e
b100000 Z"
b100000 u"
b100000 z"
b11010000111011000110010011 L
b11010000111011000110010011 I"
b11010000111011000110010011 \"
b11100 D
b11100 H"
b11100 ]"
b1100 {
b1100 &"
b1100 O"
b0 #
b0 7
b0 2"
b0 Y"
b10011000011101100101000000000000 :
b10011000011101100101000000000000 X"
b1001 >
b1001 3"
b1001 W"
b11110111100 Q
b11110111100 5"
b11110111100 T"
b11110111100 m"
b1111011110000101100010010010011 M
b1111011110000101100010010010011 U"
b11100 p"
b11000 E
b11000 %"
b11000 4"
b11000 V"
b11000 o"
b1001000110100 8
b1001000110100 C"
b11111111111111111111110000000000 R
b11111111111111111111110000000000 @"
b11111111111111111111110000000000 a"
b11000 Y
b11000 >"
b10011000011101100100110000000000 !
b10011000011101100100110000000000 X
b10011000011101100100110000000000 ?"
b10011000011101100100110000000000 `"
b1000 ?
b1000 B"
b1000 c"
b10100 F
b10100 A"
b10100 b"
b111 =
b111 j"
b111 x"
b1101000101 P
b1101000101 h"
b1010101111001 W
b1010101111001 g"
b10000 C
b10000 i"
b1001000110100 !"
b1001000110100 #"
b1001000110100 F"
1'
#850
0'
