wave.vcd
$date
	Sun Jul 09 18:33:00 2023
$end
$version
	Icarus Verilog
$end
$timescale
	1s
$end
$scope module sccomp_tb $end
$scope module xgriscv $end
$scope module U_SCPU $end
$var wire 32 ! Addr_out [31:0] $end
$var wire 1 " CPU_MIO $end
$var wire 32 # Data_out [31:0] $end
$var wire 1 $ INT $end
$var wire 1 % MIO_ready $end
$var wire 32 & PC_out [31:0] $end
$var wire 1 ' clk $end
$var wire 3 ( dm_ctrl [2:0] $end
$var wire 1 ) flush $end
$var wire 1 * flush_a $end
$var wire 1 + mem_w $end
$var wire 32 , rb_data_in [31:0] $end
$var wire 1 - reset $end
$var wire 1 . stall $end
$var wire 20 / uimm [19:0] $end
$var wire 12 0 simm [11:0] $end
$var wire 32 1 rs2_imm_tmp [31:0] $end
$var wire 32 2 rs2_data_id_ex_out [31:0] $end
$var wire 32 3 rs2_data_ex_mem_out [31:0] $end
$var wire 5 4 rs2 [4:0] $end
$var wire 32 5 rs1_data_id_ex_out [31:0] $end
$var wire 5 6 rs1 [4:0] $end
$var wire 32 7 rdata_mem_wb_out [31:0] $end
$var wire 5 8 rd_mem_wb_out [4:0] $end
$var wire 5 9 rd_id_ex_out [4:0] $end
$var wire 5 : rd_ex_mem_out [4:0] $end
$var wire 5 ; rd [4:0] $end
$var wire 32 < rb_data_pc [31:0] $end
$var wire 32 = rb_data [31:0] $end
$var wire 32 > pc_mem_wb_out [31:0] $end
$var wire 32 ? pc_if_id_out [31:0] $end
$var wire 32 @ pc_id_ex_out [31:0] $end
$var wire 32 A pc_ex_mem_out [31:0] $end
$var wire 20 B jimm [19:0] $end
$var wire 32 C instr_if_id_out [31:0] $end
$var wire 32 D instr_id_ex_out [31:0] $end
$var wire 32 E inst_in [31:0] $end
$var wire 32 F immout [31:0] $end
$var wire 32 G imm_mem_wb_out [31:0] $end
$var wire 32 H imm_id_ex_out [31:0] $end
$var wire 32 I imm_ex_mem_out [31:0] $end
$var wire 5 J iimm_shamt [4:0] $end
$var wire 12 K iimm [11:0] $end
$var wire 12 L bimm [11:0] $end
$var wire 32 M alu_out [31:0] $end
$var wire 32 N alu_mem_wb_out [31:0] $end
$var wire 32 O alu_ex_mem_out [31:0] $end
$var wire 32 P addsum_ex_mem_out [31:0] $end
$var wire 1 Q Zero $end
$var wire 2 R WDSel_mem_wb_out [1:0] $end
$var wire 2 S WDSel_id_ex_out [1:0] $end
$var wire 2 T WDSel_ex_mem_out [1:0] $end
$var wire 2 U WDSel [1:0] $end
$var wire 1 V RegWrite_mem_wb_out $end
$var wire 1 W RegWrite_id_ex_out $end
$var wire 1 X RegWrite_ex_mem_out $end
$var wire 1 Y RegWrite $end
$var wire 32 Z RD2 [31:0] $end
$var wire 32 [ RD1 [31:0] $end
$var wire 32 \ PC [31:0] $end
$var wire 7 ] Op [6:0] $end
$var wire 3 ^ NPCOp_id_ex_out [2:0] $end
$var wire 3 _ NPCOp_ex_mem_out [2:0] $end
$var wire 3 ` NPCOp [2:0] $end
$var wire 32 a NPC [31:0] $end
$var wire 1 b MemWrite_id_ex_out $end
$var wire 1 c MemWrite_ex_mem_out $end
$var wire 1 d MemWrite $end
$var wire 1 e MemRead_id_ex_out $end
$var wire 1 f MemRead $end
$var wire 7 g Funct7 [6:0] $end
$var wire 3 h Funct3 [2:0] $end
$var wire 6 i EXTOp_id_ex_out [5:0] $end
$var wire 6 j EXTOp [5:0] $end
$var wire 32 k Data_in [31:0] $end
$var wire 3 l DMType_mem_wb_out [2:0] $end
$var wire 3 m DMType_id_ex_out [2:0] $end
$var wire 3 n DMType_ex_mem_out [2:0] $end
$var wire 3 o DMType [2:0] $end
$var wire 1 p ALUSrc_id_ex_out $end
$var wire 1 q ALUSrc $end
$var wire 5 r ALUOp_id_ex_out [4:0] $end
$var wire 5 s ALUOp [4:0] $end
$var reg 32 t Data_in_new [31:0] $end
$var reg 3 u NPCOp_a [2:0] $end
$var reg 1 v fwa $end
$var reg 1 w fwb $end
$scope module U_ALU $end
$var wire 32 x B [31:0] $end
$var wire 32 y pc_alu_in [31:0] $end
$var wire 1 Q Zero $end
$var wire 5 z ALUOp [4:0] $end
$var wire 32 { A [31:0] $end
$var reg 32 | C [31:0] $end
$upscope $end
$scope module U_EXT $end
$var wire 12 } bimm [11:0] $end
$var wire 12 ~ iimm [11:0] $end
$var wire 5 !" iimm_shamt [4:0] $end
$var wire 20 "" jimm [19:0] $end
$var wire 12 #" simm [11:0] $end
$var wire 20 $" uimm [19:0] $end
$var wire 6 %" EXTOp [5:0] $end
$var reg 32 &" immout [31:0] $end
$upscope $end
$scope module U_EX_MEM $end
$var wire 1 '" MemRead_ex_mem_in $end
$var wire 32 (" alu_ex_mem_in [31:0] $end
$var wire 1 ' clk $end
$var wire 1 ) flush $end
$var wire 1 - rst $end
$var wire 1 Q zero_ex_mem_in $end
$var wire 32 )" rs2_data_ex_mem_in [31:0] $end
$var wire 5 *" rd_ex_mem_in [4:0] $end
$var wire 32 +" pc_ex_mem_in [31:0] $end
$var wire 32 ," imm_ex_mem_in [31:0] $end
$var wire 32 -" addsum_ex_mem_in [31:0] $end
$var wire 2 ." WDSel_ex_mem_in [1:0] $end
$var wire 1 W RegWrite_ex_mem_in $end
$var wire 3 /" NPCOp_ex_mem_in [2:0] $end
$var wire 1 b MemWrite_ex_mem_in $end
$var wire 3 0" DMType_ex_mem_in [2:0] $end
$var reg 3 1" DMType_ex_mem_out [2:0] $end
$var reg 1 2" MemRead_ex_mem_out $end
$var reg 1 c MemWrite_ex_mem_out $end
$var reg 3 3" NPCOp_ex_mem_out [2:0] $end
$var reg 1 X RegWrite_ex_mem_out $end
$var reg 2 4" WDSel_ex_mem_out [1:0] $end
$var reg 32 5" addsum_ex_mem_out [31:0] $end
$var reg 32 6" alu_ex_mem_out [31:0] $end
$var reg 32 7" imm_ex_mem_out [31:0] $end
$var reg 32 8" pc_ex_mem_out [31:0] $end
$var reg 5 9" rd_ex_mem_out [4:0] $end
$var reg 32 :" rs2_data_ex_mem_out [31:0] $end
$upscope $end
$scope module U_ID_EX $end
$var wire 1 ' clk $end
$var wire 1 ) flush $end
$var wire 32 ;" imm_id_ex_in [31:0] $end
$var wire 5 <" rd_id_ex_in [4:0] $end
$var wire 1 - rst $end
$var wire 32 =" rs2_data_id_ex_in [31:0] $end
$var wire 32 >" rs1_data_id_ex_in [31:0] $end
$var wire 32 ?" pc_id_ex_in [31:0] $end
$var wire 32 @" instr_id_ex_in [31:0] $end
$var wire 2 A" WDSel_id_ex_in [1:0] $end
$var wire 1 Y RegWrite_id_ex_in $end
$var wire 3 B" NPCOp_id_ex_in [2:0] $end
$var wire 1 d MemWrite_id_ex_in $end
$var wire 1 f MemRead_id_ex_in $end
$var wire 6 C" EXTOp_id_ex_in [5:0] $end
$var wire 3 D" DMType_id_ex_in [2:0] $end
$var wire 1 q ALUSrc_id_ex_in $end
$var wire 5 E" ALUOp_id_ex_in [4:0] $end
$var reg 5 F" ALUOp_id_ex_out [4:0] $end
$var reg 1 p ALUSrc_id_ex_out $end
$var reg 3 G" DMType_id_ex_out [2:0] $end
$var reg 6 H" EXTOp_id_ex_out [5:0] $end
$var reg 1 e MemRead_id_ex_out $end
$var reg 1 b MemWrite_id_ex_out $end
$var reg 3 I" NPCOp_id_ex_out [2:0] $end
$var reg 1 W RegWrite_id_ex_out $end
$var reg 2 J" WDSel_id_ex_out [1:0] $end
$var reg 32 K" imm_id_ex_out [31:0] $end
$var reg 32 L" instr_id_ex_out [31:0] $end
$var reg 32 M" pc_id_ex_out [31:0] $end
$var reg 5 N" rd_id_ex_out [4:0] $end
$var reg 32 O" rs1_data_id_ex_out [31:0] $end
$var reg 32 P" rs2_data_id_ex_out [31:0] $end
$upscope $end
$scope module U_IF_ID $end
$var wire 1 ' clk $end
$var wire 1 ) flush $end
$var wire 1 - rst $end
$var wire 32 Q" pc_if_id_in [31:0] $end
$var wire 32 R" instr_if_id_in [31:0] $end
$var reg 32 S" instr_if_id_out [31:0] $end
$var reg 32 T" pc_if_id_out [31:0] $end
$upscope $end
$scope module U_MEM_WB $end
$var wire 3 U" DMType_mem_wb_in [2:0] $end
$var wire 1 X RegWrite_mem_wb_in $end
$var wire 2 V" WDSel_mem_wb_in [1:0] $end
$var wire 32 W" alu_mem_wb_in [31:0] $end
$var wire 1 ' clk $end
$var wire 1 ) flush $end
$var wire 32 X" imm_mem_wb_in [31:0] $end
$var wire 32 Y" pc_mem_wb_in [31:0] $end
$var wire 5 Z" rd_mem_wb_in [4:0] $end
$var wire 32 [" rdata_mem_wb_in [31:0] $end
$var wire 1 - rst $end
$var reg 3 \" DMType_mem_wb_out [2:0] $end
$var reg 1 V RegWrite_mem_wb_out $end
$var reg 2 ]" WDSel_mem_wb_out [1:0] $end
$var reg 32 ^" alu_mem_wb_out [31:0] $end
$var reg 32 _" imm_mem_wb_out [31:0] $end
$var reg 32 `" pc_mem_wb_out [31:0] $end
$var reg 5 a" rd_mem_wb_out [4:0] $end
$var reg 32 b" rdata_mem_wb_out [31:0] $end
$upscope $end
$scope module U_NPC $end
$var wire 32 c" ALU_out [31:0] $end
$var wire 32 d" IMM [31:0] $end
$var wire 3 e" NPCOp [2:0] $end
$var wire 32 f" PC [31:0] $end
$var wire 32 g" PC_plus4 [31:0] $end
$var reg 32 h" NPC [31:0] $end
$upscope $end
$scope module U_PC $end
$var wire 32 i" NPC [31:0] $end
$var wire 3 j" NPCOp [2:0] $end
$var wire 1 ' clk $end
$var wire 1 - rst $end
$var wire 1 . stall $end
$var wire 32 k" PC_PLUS4 [31:0] $end
$var reg 32 l" PC [31:0] $end
$upscope $end
$scope module U_RF $end
$var wire 5 m" A1 [4:0] $end
$var wire 5 n" A2 [4:0] $end
$var wire 5 o" A3 [4:0] $end
$var wire 1 V RFWr $end
$var wire 32 p" WD [31:0] $end
$var wire 1 ' clk $end
$var wire 32 q" pc [31:0] $end
$var wire 1 - rst $end
$var wire 32 r" RD2 [31:0] $end
$var wire 32 s" RD1 [31:0] $end
$var integer 32 t" i [31:0] $end
$upscope $end
$scope module U_ctrl $end
$var wire 1 q ALUSrc $end
$var wire 3 u" Funct3 [2:0] $end
$var wire 7 v" Funct7 [6:0] $end
$var wire 1 f MemRead $end
$var wire 1 d MemWrite $end
$var wire 7 w" Op [6:0] $end
$var wire 1 Y RegWrite $end
$var wire 1 Q Zero $end
$var wire 1 x" i_add $end
$var wire 1 y" i_addi $end
$var wire 1 z" i_and $end
$var wire 1 {" i_andi $end
$var wire 1 |" i_auipc $end
$var wire 1 }" i_beq $end
$var wire 1 ~" i_bge $end
$var wire 1 !# i_bgeu $end
$var wire 1 "# i_blt $end
$var wire 1 ## i_bltu $end
$var wire 1 $# i_bne $end
$var wire 1 %# i_jal $end
$var wire 1 &# i_jalr $end
$var wire 1 '# i_lb $end
$var wire 1 (# i_lbu $end
$var wire 1 )# i_lh $end
$var wire 1 *# i_lhu $end
$var wire 1 +# i_lui $end
$var wire 1 ,# i_lw $end
$var wire 1 -# i_or $end
$var wire 1 .# i_ori $end
$var wire 1 /# i_sb $end
$var wire 1 0# i_sh $end
$var wire 1 1# i_sll $end
$var wire 1 2# i_slli $end
$var wire 1 3# i_slt $end
$var wire 1 4# i_slti $end
$var wire 1 5# i_sltiu $end
$var wire 1 6# i_sltu $end
$var wire 1 7# i_sra $end
$var wire 1 8# i_srai $end
$var wire 1 9# i_srl $end
$var wire 1 :# i_srli $end
$var wire 1 ;# i_sub $end
$var wire 1 <# i_sw $end
$var wire 1 =# i_xor $end
$var wire 1 ># i_xori $end
$var wire 1 ?# itype_l $end
$var wire 1 @# itype_r $end
$var wire 1 A# rtype $end
$var wire 1 B# sbtype $end
$var wire 1 C# stype $end
$var wire 2 D# WDSel [1:0] $end
$var wire 3 E# NPCOp [2:0] $end
$var wire 6 F# EXTOp [5:0] $end
$var wire 3 G# DMType [2:0] $end
$var wire 5 H# ALUOp [4:0] $end
$upscope $end
$upscope $end
$upscope $end
$upscope $end
$enddefinitions $end
$comment Show the parameter values. $end
$dumpall
$end
#0
$dumpvars
b0 H#
b0 G#
b0 F#
b0 E#
b0 D#
0C#
0B#
0A#
0@#
0?#
0>#
0=#
0<#
0;#
0:#
09#
08#
07#
06#
05#
04#
03#
02#
01#
00#
0/#
0.#
0-#
0,#
0+#
0*#
0)#
0(#
0'#
0&#
0%#
0$#
0##
0"#
0!#
0~"
0}"
0|"
0{"
0z"
0y"
0x"
b0 w"
b0 v"
b0 u"
b100000 t"
b0 s"
b0 r"
b0 q"
b0 p"
b0 o"
b0 n"
b0 m"
b0 l"
b100 k"
b0 j"
b100 i"
b100 h"
b100 g"
b0 f"
b0 e"
b0 d"
b0 c"
b0 b"
b0 a"
b0 `"
b0 _"
b0 ^"
b0 ]"
b0 \"
bx ["
b0 Z"
b0 Y"
b0 X"
b0 W"
b0 V"
b0 U"
b0 T"
b0 S"
b11111111111111111111001010110111 R"
b0 Q"
b0 P"
b0 O"
b0 N"
b0 M"
b0 L"
b0 K"
b0 J"
b0 I"
b0 H"
b0 G"
b0 F"
b0 E"
b0 D"
b0 C"
b0 B"
b0 A"
b0 @"
b0 ?"
b0 >"
b0 ="
b0 <"
b0 ;"
b0 :"
b0 9"
b0 8"
b0 7"
b0 6"
b0 5"
b0 4"
b0 3"
02"
b0 1"
b0 0"
b0 /"
b0 ."
b100 -"
b0 ,"
b0 +"
b0 *"
b0 )"
b0 ("
z'"
b0 &"
b0 %"
b0 $"
b0 #"
b0 ""
b0 !"
b0 ~
b0 }
b0 |
b0 {
b0 z
b0 y
b0 x
0w
0v
b0 u
bx t
b0 s
b0 r
0q
0p
b0 o
b0 n
b0 m
b0 l
bx k
b0 j
b0 i
b0 h
b0 g
0f
0e
0d
0c
0b
b100 a
b0 `
b0 _
b0 ^
b0 ]
b0 \
b0 [
b0 Z
0Y
0X
0W
0V
b0 U
b0 T
b0 S
b0 R
1Q
b0 P
b0 O
b0 N
b0 M
b0 L
b0 K
b0 J
b0 I
b0 H
b0 G
b0 F
b11111111111111111111001010110111 E
b0 D
b0 C
b0 B
b0 A
b0 @
b0 ?
b0 >
b0 =
b0 <
b0 ;
b0 :
b0 9
b0 8
b0 7
b0 6
b0 5
b0 4
b0 3
b0 2
b0 1
b0 0
b0 /
0.
1-
b0 ,
0+
0*
0)
b0 (
1'
b0 &
z%
z$
b0 #
z"
b0 !
$end
#5
0-
#50
0'
#100
b11111111111111111111000000000000 F
b11111111111111111111000000000000 &"
b11111111111111111111000000000000 ;"
b1 s
b1 E"
b1 H#
1+#
0|"
1Y
1q
b10 j
b10 %"
b10 C"
b10 F#
0f
b0 U
b0 A"
b0 D#
0?#
b101 ;
b101 <"
b11111 4
b11111 n"
b11111 6
b11111 m"
b111 h
b111 u"
b1111111 g
b1111111 v"
b110111 ]
b110111 w"
b11111111111111111111 B
b11111111111111111111 ""
b11111111111111111111 /
b11111111111111111111 $"
b111111110010 L
b111111110010 }
b111111100101 0
b111111100101 #"
b111111111111 K
b111111111111 ~
b11111 J
b11111 !"
b100111000001110010011 E
b100111000001110010011 R"
bx ,
bx 7
bx b"
z2"
b100 P
b100 5"
b11111111111111111111001010110111 C
b11111111111111111111001010110111 @"
b11111111111111111111001010110111 S"
b1000 k"
b100 &
b100 \
b100 Q"
b100 l"
b100 q"
1'
#150
0'
#200
b1 F
b1 &"
b1 ;"
0x"
1y"
1@#
b11 s
b11 E"
b11 H#
1Y
1q
0A#
b10000 j
b10000 %"
b10000 C"
b10000 F#
0+#
0Q
b11111111111111111111000000000000 M
b11111111111111111111000000000000 |
b11111111111111111111000000000000 ("
b11111111111111111111000000000000 c"
b10011 E
b10011 R"
b111 ;
b111 <"
b1 4
b1 n"
b111 6
b111 m"
b0 h
b0 u"
b0 g
b0 v"
b10011 ]
b10011 w"
b11100010000000000 B
b11100010000000000 ""
b100111000 /
b100111000 $"
b10000000011 L
b10000000011 }
b111 0
b111 #"
b1 K
b1 ~
b1 J
b1 !"
b11111111111111111111000000000000 1
b11111111111111111111000000000000 x
b1100 k"
b1000 &
b1000 \
b1000 Q"
b1000 l"
b1000 q"
b100111000001110010011 C
b100111000001110010011 @"
b100111000001110010011 S"
b100 ?
b100 ?"
b100 T"
1p
b1 r
b1 z
b1 F"
b10 i
b10 H"
1W
b101 9
b101 *"
b101 N"
b11111111111111111111000000000000 H
b11111111111111111111000000000000 ,"
b11111111111111111111000000000000 K"
b11111111111111111111000000000000 d"
b11111111111111111111001010110111 D
b11111111111111111111001010110111 L"
1'
#250
0'
#300
b0 F
b0 &"
b0 ;"
b1000 a
b1000 -"
b1000 h"
b1000 i"
b1 M
b1 |
b1 ("
b1 c"
b1 1
b1 x
b0 ;
b0 <"
b0 4
b0 n"
b0 6
b0 m"
b0 B
b0 ""
b0 /
b0 $"
b0 L
b0 }
b0 0
b0 #"
b0 K
b0 ~
b0 J
b0 !"
1X
b11111111111111111111000000000000 I
b11111111111111111111000000000000 7"
b11111111111111111111000000000000 X"
b11111111111111111111000000000000 !
b11111111111111111111000000000000 O
b11111111111111111111000000000000 6"
b11111111111111111111000000000000 W"
b101 :
b101 9"
b101 Z"
b11 r
b11 z
b11 F"
b10000 i
b10000 H"
b111 9
b111 *"
b111 N"
b1 H
b1 ,"
b1 K"
b1 d"
b100111000001110010011 D
b100111000001110010011 L"
b1000 g"
b100 @
b100 y
b100 +"
b100 M"
b100 f"
b10011 C
b10011 @"
b10011 S"
b1000 ?
b1000 ?"
b1000 T"
b10000 k"
b1100 &
b1100 \
b1100 Q"
b1100 l"
b1100 q"
1'
#350
0'
#400
b1100 a
b1100 -"
b1100 h"
b1100 i"
1Q
b0 M
b0 |
b0 ("
b0 c"
b11111111111111111111000000000000 =
b11111111111111111111000000000000 p"
b0 1
b0 x
b11111111111111111111000000000000 <
b10100 k"
b10000 &
b10000 \
b10000 Q"
b10000 l"
b10000 q"
b1100 ?
b1100 ?"
b1100 T"
b0 9
b0 *"
b0 N"
b0 H
b0 ,"
b0 K"
b0 d"
b10011 D
b10011 L"
b1100 g"
b1000 @
b1000 y
b1000 +"
b1000 M"
b1000 f"
b1 I
b1 7"
b1 X"
b1000 P
b1000 5"
b1 !
b1 O
b1 6"
b1 W"
b111 :
b111 9"
b111 Z"
b100 A
b100 8"
b100 Y"
1V
b101 8
b101 a"
b101 o"
b11111111111111111111000000000000 G
b11111111111111111111000000000000 _"
b11111111111111111111000000000000 N
b11111111111111111111000000000000 ^"
1'
#450
0'
#500
b10000 a
b10000 -"
b10000 h"
b10000 i"
b1 =
b1 p"
b1 <
b111 8
b111 a"
b111 o"
b1 G
b1 _"
b1 N
b1 ^"
b100 >
b100 `"
b0 I
b0 7"
b0 X"
b1100 P
b1100 5"
b0 !
b0 O
b0 6"
b0 W"
b0 :
b0 9"
b0 Z"
b1000 A
b1000 8"
b1000 Y"
b10000 g"
b1100 @
b1100 y
b1100 +"
b1100 M"
b1100 f"
b10000 ?
b10000 ?"
b10000 T"
b11000 k"
b10100 &
b10100 \
b10100 Q"
b10100 l"
b10100 q"
1'
#550
0'
#600
b10100 a
b10100 -"
b10100 h"
b10100 i"
b0 =
b0 p"
b0 <
b11100 k"
b11000 &
b11000 \
b11000 Q"
b11000 l"
b11000 q"
b10100 ?
b10100 ?"
b10100 T"
b10100 g"
b10000 @
b10000 y
b10000 +"
b10000 M"
b10000 f"
b10000 P
b10000 5"
b1100 A
b1100 8"
b1100 Y"
b0 8
b0 a"
b0 o"
b0 G
b0 _"
b0 N
b0 ^"
b1000 >
b1000 `"
1'
#650
0'
#700
b11000 a
b11000 -"
b11000 h"
b11000 i"
b11100101001111001100011 E
b11100101001111001100011 R"
b1100 >
b1100 `"
b10100 P
b10100 5"
b10000 A
b10000 8"
b10000 Y"
b11000 g"
b10100 @
b10100 y
b10100 +"
b10100 M"
b10100 f"
b11000 ?
b11000 ?"
b11000 T"
b100000 k"
b11100 &
b11100 \
b11100 Q"
b11100 l"
b11100 q"
1'
#750
0'
#800
b11100 F
b11100 &"
b11100 ;"
b11100 a
b11100 -"
b11100 h"
b11100 i"
0q
b0 o
b0 D"
b0 G#
b101 s
b101 E"
b101 H#
0Y
0)#
00#
1$#
0f
b0 U
b0 A"
b0 D#
0?#
0d
0C#
b1 `
b1 B"
b1 E#
1B#
0@#
b100 j
b100 %"
b100 C"
b100 F#
0y"
02#
b1 Z
b1 ="
b1 r"
b11111111111111111111000000000000 [
b11111111111111111111000000000000 >"
b11111111111111111111000000000000 s"
b10011 E
b10011 R"
b11100 ;
b11100 <"
b111 4
b111 n"
b101 6
b101 m"
b1 h
b1 u"
b1100011 ]
b1100011 w"
b10100110000000011 B
b10100110000000011 ""
b11100101001 /
b11100101001 $"
b1110 L
b1110 }
b11100 0
b11100 #"
b111 K
b111 ~
b111 J
b111 !"
b100100 k"
b100000 &
b100000 \
b100000 Q"
b100000 l"
b100000 q"
b11100101001111001100011 C
b11100101001111001100011 @"
b11100101001111001100011 S"
b11100 ?
b11100 ?"
b11100 T"
b11100 g"
b11000 @
b11000 y
b11000 +"
b11000 M"
b11000 f"
b11000 P
b11000 5"
b10100 A
b10100 8"
b10100 Y"
b10000 >
b10000 `"
1'
#850
0'
#900
b0 F
b0 &"
b0 ;"
b1 u
b1 e"
b1 j"
b111000 a
b111000 -"
b111000 h"
b111000 i"
1Y
1q
1y"
1@#
b10000 j
b10000 %"
b10000 C"
b10000 F#
b0 `
b0 B"
b0 E#
0B#
b11 s
b11 E"
b11 H#
x)
1*
0}"
0$#
b0 Z
b0 ="
b0 r"
b0 [
b0 >"
b0 s"
b1 1
b1 x
b0 ;
b0 <"
b0 4
b0 n"
b0 6
b0 m"
b0 h
b0 u"
b10011 ]
b10011 w"
b0 B
b0 ""
b0 /
b0 $"
b0 L
b0 }
b0 0
b0 #"
b0 K
b0 ~
b0 J
b0 !"
b10100 >
b10100 `"
b11100 P
b11100 5"
b11000 A
b11000 8"
b11000 Y"
0p
b1 ^
b1 /"
b1 I"
b101 r
b101 z
b101 F"
b100 i
b100 H"
0W
b1 2
b1 )"
b1 P"
b11111111111111111111000000000000 5
b11111111111111111111000000000000 {
b11111111111111111111000000000000 O"
b11100 9
b11100 *"
b11100 N"
b11100 H
b11100 ,"
b11100 K"
b11100 d"
b11100101001111001100011 D
b11100101001111001100011 L"
b100000 g"
b11100 @
b11100 y
b11100 +"
b11100 M"
b11100 f"
b10011 C
b10011 @"
b10011 S"
b100000 ?
b100000 ?"
b100000 T"
b101000 k"
b100100 &
b100100 \
b100100 Q"
b100100 l"
b100100 q"
1'
#950
0'
#1000
b0 u
b0 e"
b0 j"
b100100 a
b100100 -"
b100100 h"
b100100 i"
0)
0*
b11100101000111001100011 E
b11100101000111001100011 R"
b0 1
b0 x
1Q
b0 M
b0 |
b0 ("
b0 c"
b111100 k"
b111000 &
b111000 \
b111000 Q"
b111000 l"
b111000 q"
b100100 ?
b100100 ?"
b100100 T"
1p
b0 ^
b0 /"
b0 I"
b11 r
b11 z
b11 F"
b10000 i
b10000 H"
1W
b0 2
b0 )"
b0 P"
b0 5
b0 {
b0 O"
b0 9
b0 *"
b0 N"
b0 H
b0 ,"
b0 K"
b0 d"
b10011 D
b10011 L"
b100100 g"
b100000 @
b100000 y
b100000 +"
b100000 M"
b100000 f"
b1 _
b1 3"
0X
b1 #
b1 3
b1 :"
b11100 I
b11100 7"
b11100 X"
b111000 P
b111000 5"
b11100 :
b11100 9"
b11100 Z"
b11100 A
b11100 8"
b11100 Y"
b11000 >
b11000 `"
1'
#1050
0'
#1100
b11100 F
b11100 &"
b11100 ;"
b101000 a
b101000 -"
b101000 h"
b101000 i"
0q
0Y
b0 o
b0 D"
b0 G#
b100 s
b100 E"
b100 H#
0'#
0/#
1}"
0y"
0f
b0 U
b0 A"
b0 D#
0?#
0d
0C#
b100 j
b100 %"
b100 C"
b100 F#
b1 `
b1 B"
b1 E#
1B#
0@#
b1 Z
b1 ="
b1 r"
b11111111111111111111000000000000 [
b11111111111111111111000000000000 >"
b11111111111111111111000000000000 s"
b11100 ;
b11100 <"
b111 4
b111 n"
b101 6
b101 m"
b1100011 ]
b1100011 w"
b10100010000000011 B
b10100010000000011 ""
b11100101000 /
b11100101000 $"
b1110 L
b1110 }
b11100 0
b11100 #"
b111 K
b111 ~
b111 J
b111 !"
b10011 E
b10011 R"
0V
b11100 8
b11100 a"
b11100 o"
b11100 G
b11100 _"
b11100 >
b11100 `"
b0 _
b0 3"
1X
b0 #
b0 3
b0 :"
b0 I
b0 7"
b0 X"
b100100 P
b100100 5"
b0 :
b0 9"
b0 Z"
b100000 A
b100000 8"
b100000 Y"
b101000 g"
b100100 @
b100100 y
b100100 +"
b100100 M"
b100100 f"
b11100101000111001100011 C
b11100101000111001100011 @"
b11100101000111001100011 S"
b111000 ?
b111000 ?"
b111000 T"
b1000000 k"
b111100 &
b111100 \
b111100 Q"
b111100 l"
b111100 q"
1'
#1150
0'
#1200
b0 F
b0 &"
b0 ;"
b111100 a
b111100 -"
b111100 h"
b111100 i"
1Y
1q
1y"
b11 s
b11 E"
b11 H#
0}"
1@#
b10000 j
b10000 %"
b10000 C"
b10000 F#
b0 `
b0 B"
b0 E#
0B#
b0 Z
b0 ="
b0 r"
b0 [
b0 >"
b0 s"
b0 ;
b0 <"
b0 4
b0 n"
b0 6
b0 m"
b10011 ]
b10011 w"
b0 B
b0 ""
b0 /
b0 $"
b0 L
b0 }
b0 0
b0 #"
b0 K
b0 ~
b0 J
b0 !"
b1 1
b1 x
0Q
b11111111111111111110111111111111 M
b11111111111111111110111111111111 |
b11111111111111111110111111111111 ("
b11111111111111111110111111111111 c"
b1000100 k"
b1000000 &
b1000000 \
b1000000 Q"
b1000000 l"
b1000000 q"
b10011 C
b10011 @"
b10011 S"
b111100 ?
b111100 ?"
b111100 T"
0p
b1 ^
b1 /"
b1 I"
b100 r
b100 z
b100 F"
b100 i
b100 H"
0W
b1 2
b1 )"
b1 P"
b11111111111111111111000000000000 5
b11111111111111111111000000000000 {
b11111111111111111111000000000000 O"
b11100 9
b11100 *"
b11100 N"
b11100 H
b11100 ,"
b11100 K"
b11100 d"
b11100101000111001100011 D
b11100101000111001100011 L"
b111100 g"
b111000 @
b111000 y
b111000 +"
b111000 M"
b111000 f"
b101000 P
b101000 5"
b100100 A
b100100 8"
b100100 Y"
1V
b0 8
b0 a"
b0 o"
b0 G
b0 _"
b100000 >
b100000 `"
1'
#1250
0'
#1300
b1000000 a
b1000000 -"
b1000000 h"
b1000000 i"
1Q
b0 1
b0 x
b0 M
b0 |
b0 ("
b0 c"
b100100 >
b100100 `"
b1 _
b1 3"
0X
b1 #
b1 3
b1 :"
b11100 I
b11100 7"
b11100 X"
b111100 P
b111100 5"
b11111111111111111110111111111111 !
b11111111111111111110111111111111 O
b11111111111111111110111111111111 6"
b11111111111111111110111111111111 W"
b11100 :
b11100 9"
b11100 Z"
b111000 A
b111000 8"
b111000 Y"
1p
b0 ^
b0 /"
b0 I"
b11 r
b11 z
b11 F"
b10000 i
b10000 H"
1W
b0 2
b0 )"
b0 P"
b0 5
b0 {
b0 O"
b0 9
b0 *"
b0 N"
b0 H
b0 ,"
b0 K"
b0 d"
b10011 D
b10011 L"
b1000000 g"
b111100 @
b111100 y
b111100 +"
b111100 M"
b111100 f"
b1000000 ?
b1000000 ?"
b1000000 T"
b1001000 k"
b1000100 &
b1000100 \
b1000100 Q"
b1000100 l"
b1000100 q"
1'
#1350
0'
#1400
b1000100 a
b1000100 -"
b1000100 h"
b1000100 i"
b11111111111111111110111111111111 =
b11111111111111111110111111111111 p"
b11111111111111111110111111111111 <
b1001100 k"
b1001000 &
b1001000 \
b1001000 Q"
b1001000 l"
b1001000 q"
b1000100 ?
b1000100 ?"
b1000100 T"
b1000100 g"
b1000000 @
b1000000 y
b1000000 +"
b1000000 M"
b1000000 f"
b0 _
b0 3"
1X
b0 #
b0 3
b0 :"
b0 I
b0 7"
b0 X"
b1000000 P
b1000000 5"
b0 !
b0 O
b0 6"
b0 W"
b0 :
b0 9"
b0 Z"
b111100 A
b111100 8"
b111100 Y"
0V
b11100 8
b11100 a"
b11100 o"
b11100 G
b11100 _"
b11111111111111111110111111111111 N
b11111111111111111110111111111111 ^"
b111000 >
b111000 `"
1'
#1450
0'
#1500
b1001000 a
b1001000 -"
b1001000 h"
b1001000 i"
b0 =
b0 p"
b0 <
1V
b0 8
b0 a"
b0 o"
b0 G
b0 _"
b0 N
b0 ^"
b111100 >
b111100 `"
b1000100 P
b1000100 5"
b1000000 A
b1000000 8"
b1000000 Y"
b1001000 g"
b1000100 @
b1000100 y
b1000100 +"
b1000100 M"
b1000100 f"
b1001000 ?
b1001000 ?"
b1001000 T"
b1010000 k"
b1001100 &
b1001100 \
b1001100 Q"
b1001100 l"
b1001100 q"
1'
#1550
0'
#1600
b1001100 a
b1001100 -"
b1001100 h"
b1001100 i"
b101010110010100010011 E
b101010110010100010011 R"
b1010100 k"
b1010000 &
b1010000 \
b1010000 Q"
b1010000 l"
b1010000 q"
b1001100 ?
b1001100 ?"
b1001100 T"
b1001100 g"
b1001000 @
b1001000 y
b1001000 +"
b1001000 M"
b1001000 f"
b1001000 P
b1001000 5"
b1000100 A
b1000100 8"
b1000100 Y"
b1000000 >
b1000000 `"
1'
#1650
0'
